%YAML 1.1
%TAG !u! tag:unity3d.com,2011:
--- !u!74 &7400000
AnimationClip:
  m_ObjectHideFlags: 0
  m_CorrespondingSourceObject: {fileID: 0}
  m_PrefabInstance: {fileID: 0}
  m_PrefabAsset: {fileID: 0}
  m_Name: Portal_General
  serializedVersion: 6
  m_Legacy: 0
  m_Compressed: 0
  m_UseHighQualityCurve: 1
  m_RotationCurves: []
  m_CompressedRotationCurves: []
  m_EulerCurves: []
  m_PositionCurves: []
  m_ScaleCurves: []
  m_FloatCurves: []
  m_PPtrCurves:
  - curve:
    - time: 0
      value: {fileID: 21300000, guid: 416ea8d380613194cb8a60f61d84f79d, type: 3}
    - time: 0.125
      value: {fileID: 21300000, guid: 3b60665894c28de4fb9195375cd682fe, type: 3}
    - time: 0.25
      value: {fileID: 21300000, guid: fd779554b8865af4da85e1bba4058873, type: 3}
    - time: 0.375
      value: {fileID: 21300000, guid: f94c7255b81b57648babf00c505b5113, type: 3}
    - time: 0.5
      value: {fileID: 21300000, guid: 3ee081c4eb769494d83df81deae67a59, type: 3}
    - time: 0.625
      value: {fileID: 21300000, guid: d9c94fafc20b46d4f852fdd3394951b3, type: 3}
    - time: 0.75
      value: {fileID: 21300000, guid: 0730192ffba91cb42bc36ee9d4158df2, type: 3}
    attribute: m_Sprite
    path: 
    classID: 212
    script: {fileID: 0}
  m_SampleRate: 8
  m_WrapMode: 0
  m_Bounds:
    m_Center: {x: 0, y: 0, z: 0}
    m_Extent: {x: 0, y: 0, z: 0}
  m_ClipBindingConstant:
    genericBindings:
    - serializedVersion: 2
      path: 0
      attribute: 0
      script: {fileID: 0}
      typeID: 212
      customType: 23
      isPPtrCurve: 1
    pptrCurveMapping:
    - {fileID: 21300000, guid: 416ea8d380613194cb8a60f61d84f79d, type: 3}
    - {fileID: 21300000, guid: 3b60665894c28de4fb9195375cd682fe, type: 3}
    - {fileID: 21300000, guid: fd779554b8865af4da85e1bba4058873, type: 3}
    - {fileID: 21300000, guid: f94c7255b81b57648babf00c505b5113, type: 3}
    - {fileID: 21300000, guid: 3ee081c4eb769494d83df81deae67a59, type: 3}
    - {fileID: 21300000, guid: d9c94fafc20b46d4f852fdd3394951b3, type: 3}
    - {fileID: 21300000, guid: 0730192ffba91cb42bc36ee9d4158df2, type: 3}
  m_AnimationClipSettings:
    serializedVersion: 2
    m_AdditiveReferencePoseClip: {fileID: 0}
    m_AdditiveReferencePoseTime: 0
    m_StartTime: 0
    m_StopTime: 0.875
    m_OrientationOffsetY: 0
    m_Level: 0
    m_CycleOffset: 0
    m_HasAdditiveReferencePose: 0
    m_LoopTime: 1
    m_LoopBlend: 0
    m_LoopBlendOrientation: 0
    m_LoopBlendPositionY: 0
    m_LoopBlendPositionXZ: 0
    m_KeepOriginalOrientation: 0
    m_KeepOriginalPositionY: 1
    m_KeepOriginalPositionXZ: 0
    m_HeightFromFeet: 0
    m_Mirror: 0
  m_EditorCurves: []
  m_EulerEditorCurves: []
  m_HasGenericRootTransform: 0
  m_HasMotionFloatCurves: 0
  m_Events: []
