%YAML 1.1
%TAG !u! tag:unity3d.com,2011:
--- !u!1001 &4316445734373324239
PrefabInstance:
  m_ObjectHideFlags: 0
  serializedVersion: 2
  m_Modification:
    m_TransformParent: {fileID: 0}
    m_Modifications:
    - target: {fileID: 2840235260078380321, guid: 54a3eb4a8ba24324a8f71d728d17a437,
        type: 3}
      propertyPath: m_Name
      value: BluePortal
      objectReference: {fileID: 0}
    - target: {fileID: 2840235260078380332, guid: 54a3eb4a8ba24324a8f71d728d17a437,
        type: 3}
      propertyPath: m_LocalPosition.x
      value: 0
      objectReference: {fileID: 0}
    - target: {fileID: 2840235260078380332, guid: 54a3eb4a8ba24324a8f71d728d17a437,
        type: 3}
      propertyPath: m_LocalPosition.y
      value: 0
      objectReference: {fileID: 0}
    - target: {fileID: 2840235260078380332, guid: 54a3eb4a8ba24324a8f71d728d17a437,
        type: 3}
      propertyPath: m_LocalPosition.z
      value: 0
      objectReference: {fileID: 0}
    - target: {fileID: 2840235260078380332, guid: 54a3eb4a8ba24324a8f71d728d17a437,
        type: 3}
      propertyPath: m_LocalRotation.x
      value: 0
      objectReference: {fileID: 0}
    - target: {fileID: 2840235260078380332, guid: 54a3eb4a8ba24324a8f71d728d17a437,
        type: 3}
      propertyPath: m_LocalRotation.y
      value: 0
      objectReference: {fileID: 0}
    - target: {fileID: 2840235260078380332, guid: 54a3eb4a8ba24324a8f71d728d17a437,
        type: 3}
      propertyPath: m_LocalRotation.z
      value: 0
      objectReference: {fileID: 0}
    - target: {fileID: 2840235260078380332, guid: 54a3eb4a8ba24324a8f71d728d17a437,
        type: 3}
      propertyPath: m_LocalRotation.w
      value: 1
      objectReference: {fileID: 0}
    - target: {fileID: 2840235260078380332, guid: 54a3eb4a8ba24324a8f71d728d17a437,
        type: 3}
      propertyPath: m_RootOrder
      value: 0
      objectReference: {fileID: 0}
    - target: {fileID: 2840235260078380332, guid: 54a3eb4a8ba24324a8f71d728d17a437,
        type: 3}
      propertyPath: m_LocalEulerAnglesHint.x
      value: 0
      objectReference: {fileID: 0}
    - target: {fileID: 2840235260078380332, guid: 54a3eb4a8ba24324a8f71d728d17a437,
        type: 3}
      propertyPath: m_LocalEulerAnglesHint.y
      value: 0
      objectReference: {fileID: 0}
    - target: {fileID: 2840235260078380332, guid: 54a3eb4a8ba24324a8f71d728d17a437,
        type: 3}
      propertyPath: m_LocalEulerAnglesHint.z
      value: 0
      objectReference: {fileID: 0}
    - target: {fileID: 2840235259794433097, guid: 54a3eb4a8ba24324a8f71d728d17a437,
        type: 3}
      propertyPath: m_Color.b
      value: 1
      objectReference: {fileID: 0}
    - target: {fileID: 2840235259794433097, guid: 54a3eb4a8ba24324a8f71d728d17a437,
        type: 3}
      propertyPath: m_Color.r
      value: 0
      objectReference: {fileID: 0}
    m_RemovedComponents: []
  m_SourcePrefab: {fileID: 100100000, guid: 54a3eb4a8ba24324a8f71d728d17a437, type: 3}
